coder • coder
…
Another advantage of the coder package is the inclusion of additional classifications, such as the pharmacy-based case-mix instrument Rx Risk V. We will use this classification in an example. This classification, in contrast to Charlson and Elixhauser, relies on medical prescription data codified by the Anatomic Therapeutic Chemical classification system (ATC).

As for all classcodes objects in the package, additional information and references are found in the object documentation (?rxriskv).

Concrete example

Let’s consider the hypothetical example above with some more concrete example data below.

Patients

ex_people contains 100 patients (with random names from the randomNames package) who received THA surgery at given (random) dates (`event´ column). This data might represent a sample from a national quality register.

ex_people
#> # A tibble: 100 x 2
#>    name                    surgery   
#>    <chr>                   <date>    
#>  1 Miller, Von Buddenbrock 2019-12-04
#>  2 Enriquez, Anthony       2020-05-17
#>  3 al-Dib, Farhaan         2020-07-13
#>  4 Martinez, Alison        2020-04-19
#>  5 el-Masri, Junaid        2020-02-06
#>  6 Sam, Niki               2020-07-25
#>  7 Connors, Jaylyn         2019-12-10
#>  8 al-Ramadan, Hanoona     2020-02-25
#>  9 Orozco, Daniel          2019-12-21
#> 10 Mills, Henry            2020-03-05
#> # … with 90 more rows
…
    # Name of patients with ATC codes
    name     = sample(ex_people$name[1:90], N, replace = TRUE),
    
    # Some random ATC codes from the decoder package
    atc      = sample(decoder::atc$key, N, replace = TRUE),
    
    # Assume that each ATC code corresponds to (random) prescription dates 
    # during 10 years before or 1 year after the median date of surgery.
    prescription = 
      median(ex_people$surgery) + 
      sample(-3650:365, N, replace = TRUE)
  )

ex_atc
#> # A tibble: 10,000 x 3
#>    name                   atc      prescription
#>    <chr>                  <chr>    <date>      
#>  1 al-Dawood, Hasan       QC01BD02 2012-08-18  
#>  2 Mendoza, Jessica       C05AA05  2017-02-26  
#>  3 Rice, Jamissa          L01XC29  2017-07-17  
#>  4 al-Asmar, Abdur Raheem QI07AA03 2012-08-03  
#>  5 Bivings, Devin         QD06BB11 2014-03-01  
#>  6 Harder, Rio            M01CC    2014-12-19  
#>  7 Whitaker, Taylor       A16AA07  2017-11-30  
#>  8 Beehler, Kelly         QD10AD   2013-09-24  
#>  9 al-Asmar, Abdur Raheem A12AA09  2015-09-13  
#> 10 Romero, Carl           S01AA05  2012-06-26  
#> # … with 9,990 more rows
Default categorization

A first attempt to calculate the Rx Risk V score for each patient:

default <- 
  categorize(
    ex_people, 
    codedata = ex_atc, 
    cc = rxriskv, 
    id = "name",
    code = "atc"
  )
#> Classification based on: regex_pratt
default
#> # A tibble: 100 x 50
#>    name  surgery    `Alcohol depend… Allergies Anticoagulants Antiplatelets
#>    <chr> <date>     <lgl>            <lgl>     <lgl>          <lgl>        
#>  1 Alex… 2019-10-08 FALSE            TRUE      TRUE           FALSE        
#>  2 Argu… 2020-07-05 FALSE            FALSE     FALSE          FALSE        
#>  3 Aust… 2020-06-28 FALSE            TRUE      FALSE          FALSE        
#>  4 Ball… 2019-11-15 NA               NA        NA             NA           
#>  5 Bean… 2019-12-14 FALSE            FALSE     FALSE          TRUE         
#>  6 Beeh… 2019-11-03 FALSE            TRUE      FALSE          FALSE        
#>  7 Bess… 2020-07-25 FALSE            TRUE      FALSE          FALSE        
#>  8 Bish… 2019-11-07 FALSE            FALSE     TRUE           FALSE        
#>  9 Bivi… 2020-01-04 FALSE            FALSE     TRUE           FALSE        
#> 10 Brow… 2020-03-17 FALSE            TRUE      FALSE          FALSE        
#> # … with 90 more rows, and 44 more variables: Anxiety <lgl>, Arrhythmia <lgl>,
#> #   `Benign prostatic hyperplasia` <lgl>, `Bipolar disorder` <lgl>, `Chronic
#> #   airways disease` <lgl>, `Congestive heart failure` <lgl>, Dementia <lgl>,
#> #   Depression <lgl>, Diabetes <lgl>, Epilepsy <lgl>, `Gastrooesophageal reflux
#> #   disease` <lgl>, Glaucoma <lgl>, Gout <lgl>, `Hepatitis B` <lgl>, `Hepatitis
#> #   C` <lgl>, HIV <lgl>, Hyperkalaemia <lgl>, Hyperlipidaemia <lgl>,
#> #   Hypertension <lgl>, Hyperthyroidism <lgl>, Hypothyroidism <lgl>,
#> #   Incontinence <lgl>, `Inflammation/pain` <lgl>, `Irritable bowel
#> #   syndrome` <lgl>, `Ischaemic heart disease: hypertension` <lgl>, `Ischemic
…
Dirty code data

Let’s assume that our code data is not as clean as simulated above.

s <- function(x) sample(x, N, replace = TRUE)

ex_atc$code <- 
  paste0(
    s(letters), s(0:9), s(LETTERS), s(c(".", "-", "?")), 
    ex_atc$code, s(LETTERS), s(0:9)
  )
#> Warning: Unknown or uninitialised column: `code`.

ex_atc
#> # A tibble: 10,000 x 4
#>    name                   atc      prescription code  
#>    <chr>                  <chr>    <date>       <chr> 
#>  1 al-Dawood, Hasan       QC01BD02 2012-08-18   c6M-B8
#>  2 Mendoza, Jessica       C05AA05  2017-02-26   q0V?Y9
#>  3 Rice, Jamissa          L01XC29  2017-07-17   d2C-X9
#>  4 al-Asmar, Abdur Raheem QI07AA03 2012-08-03   z4A-M4
#>  5 Bivings, Devin         QD06BB11 2014-03-01   q0C-R3
#>  6 Harder, Rio            M01CC    2014-12-19   e3T.X7
#>  7 Whitaker, Taylor       A16AA07  2017-11-30   a4S?P0
#>  8 Beehler, Kelly         QD10AD   2013-09-24   d2G?Y3
#>  9 al-Asmar, Abdur Raheem A12AA09  2015-09-13   q8O.J8
#> 10 Romero, Carl           S01AA05  2012-06-26   r1C?R8
#> # … with 9,990 more rows
…
